
[
   {
    "trends":  [
       {
        "name": "#TLMEP",
        "url": "http://twitter.com/search?q=%23TLMEP",
        "promoted_content": null,
        "query": "%23TLMEP",
        "tweet_volume": null
      },
       {
        "name": "#CdnScreen16",
        "url": "http://twitter.com/search?q=%23CdnScreen16",
        "promoted_content": null,
        "query": "%23CdnScreen16",
        "tweet_volume": 14341
      },
       {
        "name": "#TheWalkingDead",
        "url": "http://twitter.com/search?q=%23TheWalkingDead",
        "promoted_content": null,
        "query": "%23TheWalkingDead",
        "tweet_volume": 142022
      },
       {
        "name": "#DemTownHall",
        "url": "http://twitter.com/search?q=%23DemTownHall",
        "promoted_content": null,
        "query": "%23DemTownHall",
        "tweet_volume": 211114
      },
       {
        "name": "#LaVoixTVA",
        "url": "http://twitter.com/search?q=%23LaVoixTVA",
        "promoted_content": null,
        "query": "%23LaVoixTVA",
        "tweet_volume": null
      },
       {
        "name": "Bernier",
        "url": "http://twitter.com/search?q=Bernier",
        "promoted_content": null,
        "query": "Bernier",
        "tweet_volume": null
      },
       {
        "name": "Pete Rose",
        "url": "http://twitter.com/search?q=%22Pete+Rose%22",
        "promoted_content": null,
        "query": "%22Pete+Rose%22",
        "tweet_volume": null
      },
       {
        "name": "Kevin Koe",
        "url": "http://twitter.com/search?q=%22Kevin+Koe%22",
        "promoted_content": null,
        "query": "%22Kevin+Koe%22",
        "tweet_volume": null
      },
       {
        "name": "Wings",
        "url": "http://twitter.com/search?q=Wings",
        "promoted_content": null,
        "query": "Wings",
        "tweet_volume": 52831
      },
       {
        "name": "Jamal Murray",
        "url": "http://twitter.com/search?q=%22Jamal+Murray%22",
        "promoted_content": null,
        "query": "%22Jamal+Murray%22",
        "tweet_volume": 11259
      },
       {
        "name": "#Quantico",
        "url": "http://twitter.com/search?q=%23Quantico",
        "promoted_content": null,
        "query": "%23Quantico",
        "tweet_volume": 12103
      },
       {
        "name": "#BadWaldoHidingPlaces",
        "url": "http://twitter.com/search?q=%23BadWaldoHidingPlaces",
        "promoted_content": null,
        "query": "%23BadWaldoHidingPlaces",
        "tweet_volume": null
      },
       {
        "name": "#OnceUponATime",
        "url": "http://twitter.com/search?q=%23OnceUponATime",
        "promoted_content": null,
        "query": "%23OnceUponATime",
        "tweet_volume": 58294
      },
       {
        "name": "#NothingsEverPerfectBut",
        "url": "http://twitter.com/search?q=%23NothingsEverPerfectBut",
        "promoted_content": null,
        "query": "%23NothingsEverPerfectBut",
        "tweet_volume": null
      },
       {
        "name": "#ALDUBSusiNgMansyon",
        "url": "http://twitter.com/search?q=%23ALDUBSusiNgMansyon",
        "promoted_content": null,
        "query": "%23ALDUBSusiNgMansyon",
        "tweet_volume": 1066291
      },
       {
        "name": "#Hearties",
        "url": "http://twitter.com/search?q=%23Hearties",
        "promoted_content": null,
        "query": "%23Hearties",
        "tweet_volume": 107893
      },
       {
        "name": "#AJHL",
        "url": "http://twitter.com/search?q=%23AJHL",
        "promoted_content": null,
        "query": "%23AJHL",
        "tweet_volume": null
      },
       {
        "name": "#12DaysBeforeKATHRYNsBDay",
        "url": "http://twitter.com/search?q=%2312DaysBeforeKATHRYNsBDay",
        "promoted_content": null,
        "query": "%2312DaysBeforeKATHRYNsBDay",
        "tweet_volume": 76297
      },
       {
        "name": "#Billions",
        "url": "http://twitter.com/search?q=%23Billions",
        "promoted_content": null,
        "query": "%23Billions",
        "tweet_volume": null
      },
       {
        "name": "#TheFamily",
        "url": "http://twitter.com/search?q=%23TheFamily",
        "promoted_content": null,
        "query": "%23TheFamily",
        "tweet_volume": null
      },
       {
        "name": "#CSICyber",
        "url": "http://twitter.com/search?q=%23CSICyber",
        "promoted_content": null,
        "query": "%23CSICyber",
        "tweet_volume": null
      },
       {
        "name": "#DolceAmoreTHIS",
        "url": "http://twitter.com/search?q=%23DolceAmoreTHIS",
        "promoted_content": null,
        "query": "%23DolceAmoreTHIS",
        "tweet_volume": 507496
      },
       {
        "name": "#Shameless",
        "url": "http://twitter.com/search?q=%23Shameless",
        "promoted_content": null,
        "query": "%23Shameless",
        "tweet_volume": null
      },
       {
        "name": "#LastManOnEarth",
        "url": "http://twitter.com/search?q=%23LastManOnEarth",
        "promoted_content": null,
        "query": "%23LastManOnEarth",
        "tweet_volume": null
      },
       {
        "name": "#RHOA",
        "url": "http://twitter.com/search?q=%23RHOA",
        "promoted_content": null,
        "query": "%23RHOA",
        "tweet_volume": 25331
      },
       {
        "name": "#IllPayYourLegalFeesIfYou",
        "url": "http://twitter.com/search?q=%23IllPayYourLegalFeesIfYou",
        "promoted_content": null,
        "query": "%23IllPayYourLegalFeesIfYou",
        "tweet_volume": null
      },
       {
        "name": "#yyjstorm",
        "url": "http://twitter.com/search?q=%23yyjstorm",
        "promoted_content": null,
        "query": "%23yyjstorm",
        "tweet_volume": null
      },
       {
        "name": "#MurdochMysteries",
        "url": "http://twitter.com/search?q=%23MurdochMysteries",
        "promoted_content": null,
        "query": "%23MurdochMysteries",
        "tweet_volume": null
      },
       {
        "name": "#PurposeTourPortland",
        "url": "http://twitter.com/search?q=%23PurposeTourPortland",
        "promoted_content": null,
        "query": "%23PurposeTourPortland",
        "tweet_volume": 69139
      },
       {
        "name": "#windstorm",
        "url": "http://twitter.com/search?q=%23windstorm",
        "promoted_content": null,
        "query": "%23windstorm",
        "tweet_volume": null
      },
       {
        "name": "#IAmCait",
        "url": "http://twitter.com/search?q=%23IAmCait",
        "promoted_content": null,
        "query": "%23IAmCait",
        "tweet_volume": null
      },
       {
        "name": "#musicvideo",
        "url": "http://twitter.com/search?q=%23musicvideo",
        "promoted_content": null,
        "query": "%23musicvideo",
        "tweet_volume": null
      },
       {
        "name": "#DaylightSavingTime",
        "url": "http://twitter.com/search?q=%23DaylightSavingTime",
        "promoted_content": null,
        "query": "%23DaylightSavingTime",
        "tweet_volume": 66996
      },
       {
        "name": "#ClarksonCup",
        "url": "http://twitter.com/search?q=%23ClarksonCup",
        "promoted_content": null,
        "query": "%23ClarksonCup",
        "tweet_volume": null
      },
       {
        "name": "#Canada7s",
        "url": "http://twitter.com/search?q=%23Canada7s",
        "promoted_content": null,
        "query": "%23Canada7s",
        "tweet_volume": null
      },
       {
        "name": "#ArianaOnSNL",
        "url": "http://twitter.com/search?q=%23ArianaOnSNL",
        "promoted_content": null,
        "query": "%23ArianaOnSNL",
        "tweet_volume": 233111
      },
       {
        "name": "#WWERoadblock",
        "url": "http://twitter.com/search?q=%23WWERoadblock",
        "promoted_content": null,
        "query": "%23WWERoadblock",
        "tweet_volume": 45591
      },
       {
        "name": "#MarchMadness",
        "url": "http://twitter.com/search?q=%23MarchMadness",
        "promoted_content": null,
        "query": "%23MarchMadness",
        "tweet_volume": 90467
      },
       {
        "name": "#SundayFunday",
        "url": "http://twitter.com/search?q=%23SundayFunday",
        "promoted_content": null,
        "query": "%23SundayFunday",
        "tweet_volume": 22940
      },
       {
        "name": "#KraftHockeyville",
        "url": "http://twitter.com/search?q=%23KraftHockeyville",
        "promoted_content": null,
        "query": "%23KraftHockeyville",
        "tweet_volume": null
      },
       {
        "name": "#SXSW",
        "url": "http://twitter.com/search?q=%23SXSW",
        "promoted_content": null,
        "query": "%23SXSW",
        "tweet_volume": 83692
      },
       {
        "name": "#Ankara",
        "url": "http://twitter.com/search?q=%23Ankara",
        "promoted_content": null,
        "query": "%23Ankara",
        "tweet_volume": 792462
      },
       {
        "name": "#BCTF2016",
        "url": "http://twitter.com/search?q=%23BCTF2016",
        "promoted_content": null,
        "query": "%23BCTF2016",
        "tweet_volume": null
      },
       {
        "name": "#WeNeedMusicBecause",
        "url": "http://twitter.com/search?q=%23WeNeedMusicBecause",
        "promoted_content": null,
        "query": "%23WeNeedMusicBecause",
        "tweet_volume": 25231
      },
       {
        "name": "#SpringForward",
        "url": "http://twitter.com/search?q=%23SpringForward",
        "promoted_content": null,
        "query": "%23SpringForward",
        "tweet_volume": 13866
      },
       {
        "name": "#CFLCombine",
        "url": "http://twitter.com/search?q=%23CFLCombine",
        "promoted_content": null,
        "query": "%23CFLCombine",
        "tweet_volume": null
      },
       {
        "name": "#TFCLive",
        "url": "http://twitter.com/search?q=%23TFCLive",
        "promoted_content": null,
        "query": "%23TFCLive",
        "tweet_volume": null
      },
       {
        "name": "#StPatricksDayParade",
        "url": "http://twitter.com/search?q=%23StPatricksDayParade",
        "promoted_content": null,
        "query": "%23StPatricksDayParade",
        "tweet_volume": null
      },
       {
        "name": "#HateToBeRudeBut",
        "url": "http://twitter.com/search?q=%23HateToBeRudeBut",
        "promoted_content": null,
        "query": "%23HateToBeRudeBut",
        "tweet_volume": null
      },
       {
        "name": "#iMedia16",
        "url": "http://twitter.com/search?q=%23iMedia16",
        "promoted_content": null,
        "query": "%23iMedia16",
        "tweet_volume": null
      }
    ],
    "as_of": "2016-03-14T05:28:24Z",
    "created_at": "2016-03-14T05:23:44Z",
    "locations":  [
       {
        "name": "Canada",
        "woeid": 23424775
      }
    ]
  }
]